{
  "kind": "collectionType",
  "collectionName": "consultations",
  "info": {
    "name": "Consultation",
    "description": ""
  },
  "options": {
    "increments": true,
    "timestamps": true,
    "draftAndPublish": true
  },
  "pluginOptions": {},
  "attributes": {
    "bookingType": {
      "type": "enumeration",
      "enum": [
        "token",
        "time"
      ]
    },
    "schedule": {
      "type": "component",
      "repeatable": true,
      "component": "schedule.schedule"
    },
    "doctor": {
      "model": "doctor",
      "via": "consultations"
    },
    "site": {
      "via": "consultations",
      "model": "clinic"
    }
  }
}
